{
  "content": [
    {
      "cn": "Alexander Campbell",
      "ntId": "alecampb",
      "id": 10731
    },
    {
      "cn": "Alison Campbell",
      "ntId": "ACAMPBEL",
      "id": 19002
    },
    {
      "cn": "Charles Cumming Edwa Campbell",
      "ntId": "edcampbe",
      "id": 12318
    },
    {
      "cn": "Charlotte Campbell Le Gargasson",
      "ntId": "clegarga",
      "id": 13785
    },
    {
      "cn": "Dan Campbell",
      "ntId": "dancampb",
      "id": 7055
    },
    {
      "cn": "Dawn Campbell",
      "ntId": "dawcampb",
      "id": 1687
    },
    {
      "cn": "Donald Campbell",
      "ntId": "docampbe",
      "id": 7758
    },
    {
      "cn": "Jack Campbell",
      "ntId": "JaCampbe",
      "id": 10288
    },
    {
      "cn": "Jillian Schafer",
      "ntId": "jicampbe",
      "id": 1844
    },
    {
      "cn": "John Hepburn Jr.",
      "ntId": "JHepburn",
      "id": 4465
    },
    {
      "cn": "Kevin Campbell",
      "ntId": "kecampbe",
      "id": 4835
    },
    {
      "cn": "Mark Campbell",
      "ntId": "mcampbel",
      "id": 4076
    },
    {
      "cn": "Melanie Campbell-Alva",
      "ntId": "mecampbe",
      "id": 15805
    },
    {
      "cn": "PATRICK JAN BANDELARIA",
      "ntId": "pbandela",
      "id": 18413
    },
    {
      "cn": "Pamela Bagh",
      "ntId": "pbagh",
      "id": 5611
    },
    {
      "cn": "Pankaj Bishnoi",
      "ntId": "pbishnoi",
      "id": 3726
    },
    {
      "cn": "Parag Kashinath Borole",
      "ntId": "pborole",
      "id": 18303
    },
    {
      "cn": "Parag Purushottam Bedekar",
      "ntId": "pbedekar",
      "id": 15036
    },
    {
      "cn": "Parikksit Bhisay",
      "ntId": "pbhisay",
      "id": 18491
    },
    {
      "cn": "Parvej Batada",
      "ntId": "pbatada",
      "id": 12390
    }
  ],
  "last": false,
  "totalPages": 3,
  "totalElements": 57,
  "sort": null,
  "first": true,
  "numberOfElements": 20,
  "size": 20,
  "number": 0
}
